<svg width="6" height="11" viewBox="0 0 6 11" fill="none" xmlns="http://www.w3.org/2000/svg">
<rect width="6" height="11" fill="#1E1E1E"/>
<g id="375" clip-path="url(#clip0_201_315)">
<rect width="375" height="4577" transform="translate(-264 -4104)" fill="white"/>
<g id="pang-div">
<g id="pang">
<g id="next">
<path id="Vector 1" d="M0.75 1L5.25 5.5L0.75 10" stroke="#006CE5"/>
</g>
</g>
</g>
</g>
<defs>
<clipPath id="clip0_201_315">
<rect width="375" height="4577" fill="white" transform="translate(-264 -4104)"/>
</clipPath>
</defs>
</svg>
